^C:\USERS\NÖSCHI\SOURCE\REPOS\QTGUIAPPLICATION2\QTGUIAPPLICATION2\DEBUG\ADDSHOOTERDIALOG.OBJ|C:\USERS\NÖSCHI\SOURCE\REPOS\QTGUIAPPLICATION2\QTGUIAPPLICATION2\DEBUG\DATAPACKAGE.OBJ|C:\USERS\NÖSCHI\SOURCE\REPOS\QTGUIAPPLICATION2\QTGUIAPPLICATION2\DEBUG\DATAREADER.OBJ|C:\USERS\NÖSCHI\SOURCE\REPOS\QTGUIAPPLICATION2\QTGUIAPPLICATION2\DEBUG\DATAROW.OBJ|C:\USERS\NÖSCHI\SOURCE\REPOS\QTGUIAPPLICATION2\QTGUIAPPLICATION2\DEBUG\DBCONTROLLER.OBJ|C:\USERS\NÖSCHI\SOURCE\REPOS\QTGUIAPPLICATION2\QTGUIAPPLICATION2\DEBUG\DBMANAGER.OBJ|C:\USERS\NÖSCHI\SOURCE\REPOS\QTGUIAPPLICATION2\QTGUIAPPLICATION2\DEBUG\DISCIPLINECREATIONWIDGET.OBJ|C:\USERS\NÖSCHI\SOURCE\REPOS\QTGUIAPPLICATION2\QTGUIAPPLICATION2\DEBUG\EVALUATION_WINDOW.OBJ|C:\USERS\NÖSCHI\SOURCE\REPOS\QTGUIAPPLICATION2\QTGUIAPPLICATION2\DEBUG\FILEINPUT.OBJ|C:\USERS\NÖSCHI\SOURCE\REPOS\QTGUIAPPLICATION2\QTGUIAPPLICATION2\DEBUG\GLWIDGET.OBJ|C:\USERS\NÖSCHI\SOURCE\REPOS\QTGUIAPPLICATION2\QTGUIAPPLICATION2\DEBUG\LINE.OBJ|C:\USERS\NÖSCHI\SOURCE\REPOS\QTGUIAPPLICATION2\QTGUIAPPLICATION2\DEBUG\MAIN.OBJ|C:\USERS\NÖSCHI\SOURCE\REPOS\QTGUIAPPLICATION2\QTGUIAPPLICATION2\DEBUG\MEASSUREMENT_ANALYZER.OBJ|C:\USERS\NÖSCHI\SOURCE\REPOS\QTGUIAPPLICATION2\QTGUIAPPLICATION2\DEBUG\MOC_ADDSHOOTERDIALOG.OBJ|C:\USERS\NÖSCHI\SOURCE\REPOS\QTGUIAPPLICATION2\QTGUIAPPLICATION2\DEBUG\MOC_DISCIPLINECREATIONWIDGET.OBJ|C:\USERS\NÖSCHI\SOURCE\REPOS\QTGUIAPPLICATION2\QTGUIAPPLICATION2\DEBUG\MOC_EVALUATION_WINDOW.OBJ|C:\USERS\NÖSCHI\SOURCE\REPOS\QTGUIAPPLICATION2\QTGUIAPPLICATION2\DEBUG\MOC_GLWIDGET.OBJ|C:\USERS\NÖSCHI\SOURCE\REPOS\QTGUIAPPLICATION2\QTGUIAPPLICATION2\DEBUG\MOC_QTGUIAPPLICATION2.OBJ|C:\USERS\NÖSCHI\SOURCE\REPOS\QTGUIAPPLICATION2\QTGUIAPPLICATION2\DEBUG\MOC_RESULTLOADERWIDGET.OBJ|C:\USERS\NÖSCHI\SOURCE\REPOS\QTGUIAPPLICATION2\QTGUIAPPLICATION2\DEBUG\MOC_SHOOTERSELECTIONVIEW.OBJ|C:\USERS\NÖSCHI\SOURCE\REPOS\QTGUIAPPLICATION2\QTGUIAPPLICATION2\DEBUG\MOC_WEAPONCREATIONWIDGET.OBJ|C:\USERS\NÖSCHI\SOURCE\REPOS\QTGUIAPPLICATION2\QTGUIAPPLICATION2\DEBUG\MOC_WINDOWSPROCEDURE.OBJ|C:\USERS\NÖSCHI\SOURCE\REPOS\QTGUIAPPLICATION2\QTGUIAPPLICATION2\DEBUG\QRC_QTGUIAPPLICATION2.OBJ|C:\USERS\NÖSCHI\SOURCE\REPOS\QTGUIAPPLICATION2\QTGUIAPPLICATION2\DEBUG\QTGUIAPPLICATION2.OBJ|C:\USERS\NÖSCHI\SOURCE\REPOS\QTGUIAPPLICATION2\QTGUIAPPLICATION2\DEBUG\RESULTLOADERWIDGET.OBJ|C:\USERS\NÖSCHI\SOURCE\REPOS\QTGUIAPPLICATION2\QTGUIAPPLICATION2\DEBUG\SHOOTERSELECTIONVIEW.OBJ|C:\USERS\NÖSCHI\SOURCE\REPOS\QTGUIAPPLICATION2\QTGUIAPPLICATION2\DEBUG\WEAPONCREATIONWIDGET.OBJ|C:\USERS\NÖSCHI\SOURCE\REPOS\QTGUIAPPLICATION2\QTGUIAPPLICATION2\DEBUG\WINDOWSPROCEDURE.OBJ
C:\USERS\NöSCHI\SOURCE\REPOS\QTGUIAPPLICATION2\WIN32\DEBUG\QTGUIAPPLICATION2.EXE
C:\USERS\NöSCHI\SOURCE\REPOS\QTGUIAPPLICATION2\WIN32\DEBUG\QTGUIAPPLICATION2.ILK
C:\USERS\NÖSCHI\SOURCE\REPOS\QTGUIAPPLICATION2\WIN32\DEBUG\QTGUIAPPLICATION2.PDB
